{
    "core": {
        "desc": "Python interpreter and core modules",
        "deps": ["lang", "re", "reprlib", "codecs", "io", "math"],
        "files": [
            "${bindir}/python*",
            "${includedir}/python${PYTHON_BINABI}/pyconfig*.h",
            "__future__.*",
            "_abcoll.*",
            "_bootlocale.*",
            "_collections_abc.*",
            "_markupbase.*",
            "_sitebuiltins.*",
            "_sysconfigdata.*",
            "_weakrefset.*",
            "abc.*",
            "argparse.*",
            "antigravity.*",
            "argparse.*",
            "ast.*",
            "asynchat.*",
            "asyncore.*",
            "binhex.*",
            "collections",
            "concurrent",
            "config/Makefile",
            "ConfigParser.*",
            "configparser.*",
            "contextlib.*",
            "copy.*",
            "copyreg.*",
            "enum.*",
            "filecmp.*",
            "fileinput.*",
            "genericpath.*",
            "getopt.*",
            "lib-dynload/_struct.*.so",
            "lib-dynload/binascii.*.so",
            "lib-dynload/time.*.so",
            "lib-dynload/_posixsubprocess.*.so",
            "lib-dynload/xxlimited.*.so",
            "linecache.*",
            "modulefinder.*",
            "new.*",
            "os.*",
            "platform.*",
            "posixpath.*",
            "pyclbr.*",
            "selectors.*",
            "signal.*",
            "site.*",
            "sitecustomize.py",
            "sched.*",
            "stat.*",
            "statistics.*",
            "struct.*",
            "sysconfig.*",
            "symtable.*",
            "tracemalloc.*",
            "types.*",
            "venv",
            "UserDict.*",
            "UserList.*",
            "UserString.*",
            "warnings.*"
        ]
    },
    "dev": {
        "desc": "Python development package",
        "deps": ["core"],
        "files": [
            "${includedir}",
            "${libdir}/lib*${SOLIBSDEV}",
            "${libdir}/*.la",
            "${libdir}/*.a",
            "${libdir}/*.o",
            "${libdir}/pkgconfig",
            "${base_libdir}/*.a",
            "${base_libdir}/*.o",
            "${datadir}/aclocal",
            "${datadir}/pkgconfig"
        ]
    },
    "2to3": {
        "desc": "Python automated Python 2 to 3 code translator",
        "deps": ["core"],
        "files": [
            "lib2to3"
        ]
    },
    "idle": {
        "desc": "Python Integrated Development Environment",
        "deps": ["core", "tkinter"],
        "files": [
            "${bindir}/idle",
            "idlelib"
        ]
    },
    "pydoc": {
        "desc": "Python interactive help support",
        "deps": ["core", "lang", "stringold", "re"],
        "files": [
            "${bindir}/pydoc",
            "pydoc.*",
            "pydoc_data"
        ]
    },
    "smtpd": {
        "desc": "Python Simple Mail Transport Daemon",
        "deps": ["core", "netserver", "email", "mime"],
        "files": [
            "${bindir}/smtpd.*",
            "smtpd.*"
        ]
    },
    "audio": {
        "desc": "Python Audio Handling",
        "deps": ["core"],
        "files": [
            "aifc.*",
            "audiodev.*",
            "chunk.*",
            "lib-dynload/audioop.*.so",
            "lib-dynload/ossaudiodev.*.so",
            "sndhdr.*",
            "sunau.*",
            "sunaudio.*",
            "toaiff.*",
            "wave.*"
        ]
    },
    "asyncio": {
        "desc": "Python Asynchronous I/O, event loop, coroutines and tasks",
        "deps": ["core"],
        "files": [
            "asyncio"
        ]
    },
    "codecs": {
        "desc": "Python codecs, encodings & i18n support",
        "deps": ["core", "lang"],
        "files": [
            "codecs.*",
            "encodings",
            "gettext.*",
            "locale.*",
            "lib-dynload/_locale.*.so",
            "lib-dynload/_codecs*",
            "lib-dynload/_multibytecodec.*.so",
            "lib-dynload/unicodedata.*.so",
            "stringprep.*",
            "xdrlib.*"
        ]
    },
    "compile": {
        "desc": "Python bytecode compilation support",
        "deps": ["core"],
        "files": [
            "py_compile.*",
            "compileall.*"
        ]
    },
    "compression": {
        "desc": "Python high-level compression support",
        "deps": ["core", "codecs"],
        "files": [
            "bz2.*",
            "gzip.*",
            "lzma.*",
            "zipfile.*",
            "tarfile.*",
            "lib-dynload/_bz2.*.so",
            "lib-dynload/_lzma.*.so"
        ]
    },
    "crypt": {
        "desc": "Python basic cryptographic and hashing support",
        "deps": ["core"],
        "files": [
            "crypt.*",
            "hashlib.*",
            "md5.*",
            "sha.*",
            "lib-dynload/_crypt.*.so",
            "lib-dynload/_hashlib.*.so",
            "lib-dynload/_md5.*.so",
            "lib-dynload/_sha1.*.so",
            "lib-dynload/_sha256.*.so",
            "lib-dynload/_sha512.*.so"
        ]
    },
    "textutils": {
        "desc": "Python option parsing, text wrapping and CSV support",
        "deps": ["core", "io", "re", "stringold"],
        "files": [
            "lib-dynload/_csv.*.so",
            "csv.*",
            "optparse.*",
            "textwrap.*"
        ]
    },
    "curses": {
        "desc": "Python curses support",
        "deps": ["core"],
        "files": [
            "curses",
            "lib-dynload/_curses.*.so",
            "lib-dynload/_curses_panel.*.so"
        ]
    },
    "ctypes": {
        "desc": "Python C types support",
        "deps": ["core"],
        "files": [
            "ctypes",
            "lib-dynload/_ctypes.*.so",
            "lib-dynload/_ctypes_test.*.so"
        ]
    },
    "datetime": {
        "desc": "Python calendar and time support",
        "deps": ["core", "codecs"],
        "files": [
            "_strptime.*",
            "datetime.*",
            "calendar.*",
            "lib-dynload/_datetime.*.so"
        ]
    },
    "db": {
        "desc": "Python file-based database support",
       "deps": ["core"],
        "files": [
            "anydbm.*",
            "dumbdbm.*",
            "whichdb.*",
            "dbm",
            "lib-dynload/_dbm.*.so"
        ]
    },
    "debugger": {
        "desc": "Python debugger",
        "deps": ["core", "io", "lang", "re", "stringold", "shell", "pprint", "importlib", "pkgutil"],
        "files": [
            "bdb.*",
            "pdb.*"
        ]
    },
    "difflib": {
        "desc": "Python helpers for computing deltas between objects",
        "deps": ["lang", "re"],
        "files": [
            "difflib.*"
        ]
    },
    "distutils-staticdev": {
        "desc": "Python distribution utilities (static libraries)",
        "deps": ["distutils"],
        "files": [
            "config/lib*.a"
        ]
    },
    "distutils": {
        "desc": "Python Distribution Utilities",
        "deps": ["core"],
        "files": [
            "config",
            "distutils"
        ]
    },
    "elementtree": {
        "desc": "Python elementree",
        "deps": ["core"],
        "files": [
            "lib-dynload/_elementtree.*.so"
        ]
    },
    "email": {
        "desc": "Python email support",
        "deps": ["core", "io", "re", "mime", "audio", "image", "netclient"],
        "files": [
            "imaplib.*",
            "email"
        ]
    },
    "fcntl": {
        "desc": "Python's fcntl interface",
        "deps": ["core"],
        "files": [
            "lib-dynload/fcntl.*.so"
        ]
    },
    "html": {
        "desc": "Python HTML processing support",
        "deps": ["core"],
        "files": [
            "formatter.*",
            "htmlentitydefs.*",
            "html",
            "htmllib.*",
            "markupbase.*",
            "sgmllib.*",
            "HTMLParser.*"
        ]
    },
    "importlib": {
        "desc": "Python import implementation library",
        "deps": ["core"],
        "files": [
            "imp.*",
            "importlib"
        ]
    },
    "gdbm": {
        "desc": "Python GNU database support",
        "deps": ["core"],
        "files": [
            "lib-dynload/_gdbm.*.so"
        ]
    },
    "image": {
        "desc": "Python graphical image handling",
        "deps": ["core"],
        "files": [
            "colorsys.*",
            "imghdr.*",
            "lib-dynload/imageop.*.so",
            "lib-dynload/rgbimg.*.so"
        ]
    },
    "io": {
        "desc": "Python low-level I/O",
        "deps": ["core", "math"],
        "files": [
            "lib-dynload/_socket.*.so",
            "lib-dynload/_io.*.so",
            "lib-dynload/_ssl.*.so",
            "lib-dynload/select.*.so",
            "lib-dynload/termios.*.so",
            "lib-dynload/cStringIO.*.so",
            "pipes.*",
            "socket.*",
            "ssl.*",
            "tempfile.*",
            "StringIO.*",
            "io.*",
            "_pyio.*"
        ]
    },
    "json": {
        "desc": "Python JSON support",
        "deps": ["core", "math", "re"],
        "files": [
            "json",
            "lib-dynload/_json.*.so"
        ]
    },
    "lang": {
        "desc": "Python low-level language support",
        "deps": ["core"],
        "files": [
            "lib-dynload/_bisect.*.so",
            "lib-dynload/_collections.*.so",
            "lib-dynload/_heapq.*.so",
            "lib-dynload/_opcode.*.so",
            "lib-dynload/_weakref.*.so",
            "lib-dynload/_functools.*.so",
            "lib-dynload/array.*.so",
            "lib-dynload/itertools.*.so",
            "lib-dynload/operator.*.so",
            "lib-dynload/parser.*.so",
            "atexit.*",
            "bisect.*",
            "code.*",
            "codeop.*",
            "collections.*",
            "_collections_abc.*",
            "dis.*",
            "functools.*",
            "heapq.*",
            "inspect.*",
            "keyword.*",
            "opcode.*",
            "operator.*",
            "pathlib.*",
            "symbol.*",
            "repr.*",
            "token.*",
            "tokenize.*",
            "traceback.*",
            "weakref.*"
        ]
    },
    "logging": {
        "desc": "Python logging support",
        "deps": ["core", "io", "lang", "pickle", "stringold"],
        "files": [
            "logging"
        ]
    },
    "mailbox": {
        "desc": "Python mailbox format support",
        "deps": ["core", "mime"],
        "files": [
            "mailcap.*",
            "mailbox.*"
        ]
    },
    "math": {
        "desc": "Python math support",
        "deps": ["core"],
        "files": [
            "lib-dynload/cmath.*.so",
            "lib-dynload/math.*.so",
            "lib-dynload/_random.*.so",
            "random.*",
            "sets.*"
        ]
    },
    "mime": {
        "desc": "Python MIME handling APIs",
        "deps": ["core", "io"],
        "files": [
            "mimetools.*",
            "uu.*",
            "quopri.*",
            "rfc822.*",
            "MimeWriter.*"
        ]
    },
    "mmap": {
        "desc": "Python memory-mapped file support",
        "deps": ["core", "io"],
        "files": [
            "lib-dynload/mmap.*.so"
        ]
    },
    "multiprocessing": {
        "desc": "Python multiprocessing support",
        "deps": ["core", "io", "lang", "pickle", "threading", "ctypes", "mmap"],
        "files": [
            "lib-dynload/_multiprocessing.*.so",
            "multiprocessing"
        ]
    },
    "netclient": {
        "desc": "Python Internet Protocol clients",
        "deps": ["core", "crypt", "datetime", "io", "lang", "logging", "mime"],
        "files": [
            "*Cookie*.*",
            "base64.*",
            "cookielib.*",
            "ftplib.*",
            "gopherlib.*",
            "hmac.*",
            "httplib.*",
            "ipaddress.*",
            "mimetypes.*",
            "netrc.*",
            "nntplib.*",
            "poplib.*",
            "smtplib.*",
            "telnetlib.*",
            "urllib",
            "uuid.*",
            "rfc822.*",
            "mimetools.*"
        ]
    },
    "netserver": {
        "desc": "Python Internet Protocol servers",
        "deps": ["core", "netclient", "shell", "threading"],
        "files": [
            "cgi.*",
            "cgitb.*",
            "http",
            "socketserver.*"
        ]
    },
    "numbers": {
        "desc": "Python number APIs",
        "deps": ["core", "lang", "re"],
        "files": [
            "lib-dynload/_decimal.*.so",
            "decimal.*",
            "fractions.*",
            "numbers.*"
        ]
    },
    "pickle": {
        "desc": "Python serialisation/persistence support",
        "deps": ["core", "codecs", "io", "re"],
        "files": [
            "_compat_pickle.*",
            "lib-dynload/_pickle.*.so",
            "pickle.*",
            "pickletools.*",
            "shelve.*"
        ]
    },
    "pkgutil": {
        "desc": "Python package extension utility support",
        "deps": ["core"],
        "files": [
            "pkgutil.*"
        ]
    },
    "pprint": {
        "desc": "Python pretty-print support",
        "deps": ["core", "io"],
        "files": [
            "pprint.*"
        ]
    },
    "profile": {
        "desc": "Python basic performance profiling support",
        "deps": ["core", "textutils"],
        "files": [
            "profile.*",
            "pstats.*",
            "cProfile.*",
            "lib-dynload/_lsprof.*.so"
        ]
    },
    "re": {
        "desc": "Python Regular Expression APIs",
        "deps": ["core"],
        "files": [
            "re.*",
            "sre.*",
            "sre_compile.*",
            "sre_constants*",
            "sre_parse.*"
        ]
    },
    "readline": {
        "desc": "Python readline support",
        "deps": ["core"],
        "files": [
            "lib-dynload/readline.*.so",
            "rlcompleter.*"
        ]
    },
    "reprlib": {
        "desc": "Python alternate repr() implementation",
        "deps": ["core"],
        "files": [
            "reprlib.py"
        ]
    },
    "resource": {
        "desc": "Python resource control interface",
        "deps": ["core"],
        "files": [
            "lib-dynload/resource.*.so"
        ]
    },
    "shell": {
        "desc": "Python shell-like functionality",
        "deps": ["core", "re"],
        "files": [
            "cmd.*",
            "commands.*",
            "dircache.*",
            "fnmatch.*",
            "glob.*",
            "popen2.*",
            "shlex.*",
            "shutil.*"
        ]
    },
    "subprocess": {
        "desc": "Python subprocess support",
        "deps": ["core", "io", "re", "fcntl", "pickle"],
        "files": [
            "subprocess.*"
        ]
    },
    "sqlite3": {
        "desc": "Python Sqlite3 database support",
        "deps": ["core", "datetime", "lang", "crypt", "io", "threading"],
        "files": [
            "lib-dynload/_sqlite3.*.so",
            "sqlite3/dbapi2.*",
            "sqlite3/__init__.*",
            "sqlite3/dump.*"
        ]
    },
    "sqlite3-tests": {
        "desc": "Python Sqlite3 database support tests",
        "deps": ["core", "sqlite3"],
        "files": [
            "sqlite3/test"
        ]
    },
    "stringold": {
        "desc": "Python string APIs [deprecated]",
        "deps": ["core", "re"],
        "files": [
            "lib-dynload/strop.*.so",
            "string.*",
            "stringold.*"
        ]
    },
    "syslog": {
        "desc": "Python syslog interface",
        "deps": ["core"],
        "files": [
            "lib-dynload/syslog.*.so"
        ]
    },
    "terminal": {
        "desc": "Python terminal controlling support",
        "deps": ["core", "io"],
        "files": [
            "pty.*",
            "tty.*"
        ]
    },
    "tests": {
        "desc": "Python tests",
        "deps": ["core"],
        "files": [
            "test"
        ]
    },
    "threading": {
        "desc": "Python threading & synchronization support",
        "deps": ["core", "lang"],
        "files": [
            "_threading_local.*",
            "_dummy_thread.*",
            "dummy_thread.*",
            "dummy_threading.*",
            "mutex.*",
            "threading.*",
            "queue.*"
        ]
    },
    "tkinter": {
        "desc": "Python Tcl/Tk bindings",
        "deps": ["core"],
        "files": [
            "lib-dynload/_tkinter.*.so",
            "lib-tk",
            "tkinter"
        ]
    },
    "unittest": {
        "desc": "Python unit testing framework",
        "deps": ["core", "stringold", "lang", "io", "difflib", "pprint", "shell"],
        "files": [
            "unittest/"
        ]
    },
    "unixadmin": {
        "desc": "Python Unix administration support",
        "deps": ["core"],
        "files": [
            "lib-dynload/nis.*.so",
            "lib-dynload/grp.*.so",
            "lib-dynload/spwd.*.so",
            "getpass.*"
        ]
    },
    "xml": {
        "desc": "Python basic XML support",
        "deps": ["core", "elementtree", "re"],
        "files": [
            "lib-dynload/pyexpat.*.so",
            "xml",
            "xmllib.*"
        ]
    },
    "xmlrpc": {
        "desc": "Python XML-RPC support",
        "deps": ["core", "xml", "netserver", "lang"],
        "files": [
            "xmlrpclib.*",
            "SimpleXMLRPCServer.*",
            "DocXMLRPCServer.*",
            "xmlrpc"
        ]
    },
    "mailbox": {
        "desc": "Python mailbox format support",
        "deps": ["core", "mime"],
        "files": [
            "mailbox.*"
        ]
    }
}
